TME4_VHDL_ALUfinal_shifter/adder.vcd
$date
  Wed Oct 11 12:37:52 2023
$end
$version
  GHDL v0
$end
$timescale
  1 fs
$end
$var reg 4 ! entree1[3:0] $end
$var reg 4 " entree2[3:0] $end
$var reg 4 # sortie[3:0] $end
$scope module add0 $end
$var reg 4 $ a[3:0] $end
$var reg 4 % b[3:0] $end
$var reg 4 & s[3:0] $end
$upscope $end
$enddefinitions $end
#0
b0000 !
b0000 "
b0000 #
b0000 $
b0000 %
b0000 &
#5000000
b0001 "
b0001 #
b0001 %
b0001 &
#10000000
b0010 "
b0010 #
b0010 %
b0010 &
#15000000
b0011 "
b0011 #
b0011 %
b0011 &
#20000000
b0100 "
b0100 #
b0100 %
b0100 &
#25000000
b0101 "
b0101 #
b0101 %
b0101 &
#30000000
b0110 "
b0110 #
b0110 %
b0110 &
#35000000
b0111 "
b0111 #
b0111 %
b0111 &
#40000000
b1000 "
b1000 #
b1000 %
b1000 &
#45000000
b1001 "
b1001 #
b1001 %
b1001 &
#50000000
b1010 "
b1010 #
b1010 %
b1010 &
#55000000
b1011 "
b1011 #
b1011 %
b1011 &
#60000000
b1100 "
b1100 #
b1100 %
b1100 &
#65000000
b1101 "
b1101 #
b1101 %
b1101 &
#70000000
b1110 "
b1110 #
b1110 %
b1110 &
#75000000
b1111 "
b1111 #
b1111 %
b1111 &
#80000000
b0001 !
b0000 "
b0001 #
b0001 $
b0000 %
b0001 &
#85000000
b0001 "
b0010 #
b0001 %
b0010 &
#90000000
b0010 "
b0011 #
b0010 %
b0011 &
#95000000
b0011 "
b0100 #
b0011 %
b0100 &
#100000000
b0100 "
b0101 #
b0100 %
b0101 &
#105000000
b0101 "
b0110 #
b0101 %
b0110 &
#110000000
b0110 "
b0111 #
b0110 %
b0111 &
#115000000
b0111 "
b1000 #
b0111 %
b1000 &
#120000000
b1000 "
b1001 #
b1000 %
b1001 &
#125000000
b1001 "
b1010 #
b1001 %
b1010 &
#130000000
b1010 "
b1011 #
b1010 %
b1011 &
#135000000
b1011 "
b1100 #
b1011 %
b1100 &
#140000000
b1100 "
b1101 #
b1100 %
b1101 &
#145000000
b1101 "
b1110 #
b1101 %
b1110 &
#150000000
b1110 "
b1111 #
b1110 %
b1111 &
#155000000
b1111 "
b0000 #
b1111 %
b0000 &
#160000000
b0010 !
b0000 "
b0010 #
b0010 $
b0000 %
b0010 &
#165000000
b0001 "
b0011 #
b0001 %
b0011 &
#170000000
b0010 "
b0100 #
b0010 %
b0100 &
#175000000
b0011 "
b0101 #
b0011 %
b0101 &
#180000000
b0100 "
b0110 #
b0100 %
b0110 &
#185000000
b0101 "
b0111 #
b0101 %
b0111 &
#190000000
b0110 "
b1000 #
b0110 %
b1000 &
#195000000
b0111 "
b1001 #
b0111 %
b1001 &
#200000000
b1000 "
b1010 #
b1000 %
b1010 &
#205000000
b1001 "
b1011 #
b1001 %
b1011 &
#210000000
b1010 "
b1100 #
b1010 %
b1100 &
#215000000
b1011 "
b1101 #
b1011 %
b1101 &
#220000000
b1100 "
b1110 #
b1100 %
b1110 &
#225000000
b1101 "
b1111 #
b1101 %
b1111 &
#230000000
b1110 "
b0000 #
b1110 %
b0000 &
#235000000
b1111 "
b0001 #
b1111 %
b0001 &
#240000000
b0011 !
b0000 "
b0011 #
b0011 $
b0000 %
b0011 &
#245000000
b0001 "
b0100 #
b0001 %
b0100 &
#250000000
b0010 "
b0101 #
b0010 %
b0101 &
#255000000
b0011 "
b0110 #
b0011 %
b0110 &
#260000000
b0100 "
b0111 #
b0100 %
b0111 &
#265000000
b0101 "
b1000 #
b0101 %
b1000 &
#270000000
b0110 "
b1001 #
b0110 %
b1001 &
#275000000
b0111 "
b1010 #
b0111 %
b1010 &
#280000000
b1000 "
b1011 #
b1000 %
b1011 &
#285000000
b1001 "
b1100 #
b1001 %
b1100 &
#290000000
b1010 "
b1101 #
b1010 %
b1101 &
#295000000
b1011 "
b1110 #
b1011 %
b1110 &
#300000000
b1100 "
b1111 #
b1100 %
b1111 &
#305000000
b1101 "
b0000 #
b1101 %
b0000 &
#310000000
b1110 "
b0001 #
b1110 %
b0001 &
#315000000
b1111 "
b0010 #
b1111 %
b0010 &
#320000000
b0100 !
b0000 "
b0100 #
b0100 $
b0000 %
b0100 &
#325000000
b0001 "
b0101 #
b0001 %
b0101 &
#330000000
b0010 "
b0110 #
b0010 %
b0110 &
#335000000
b0011 "
b0111 #
b0011 %
b0111 &
#340000000
b0100 "
b1000 #
b0100 %
b1000 &
#345000000
b0101 "
b1001 #
b0101 %
b1001 &
#350000000
b0110 "
b1010 #
b0110 %
b1010 &
#355000000
b0111 "
b1011 #
b0111 %
b1011 &
#360000000
b1000 "
b1100 #
b1000 %
b1100 &
#365000000
b1001 "
b1101 #
b1001 %
b1101 &
#370000000
b1010 "
b1110 #
b1010 %
b1110 &
#375000000
b1011 "
b1111 #
b1011 %
b1111 &
#380000000
b1100 "
b0000 #
b1100 %
b0000 &
#385000000
b1101 "
b0001 #
b1101 %
b0001 &
#390000000
b1110 "
b0010 #
b1110 %
b0010 &
#395000000
b1111 "
b0011 #
b1111 %
b0011 &
#400000000
b0101 !
b0000 "
b0101 #
b0101 $
b0000 %
b0101 &
#405000000
b0001 "
b0110 #
b0001 %
b0110 &
#410000000
b0010 "
b0111 #
b0010 %
b0111 &
#415000000
b0011 "
b1000 #
b0011 %
b1000 &
#420000000
b0100 "
b1001 #
b0100 %
b1001 &
#425000000
b0101 "
b1010 #
b0101 %
b1010 &
#430000000
b0110 "
b1011 #
b0110 %
b1011 &
#435000000
b0111 "
b1100 #
b0111 %
b1100 &
#440000000
b1000 "
b1101 #
b1000 %
b1101 &
#445000000
b1001 "
b1110 #
b1001 %
b1110 &
#450000000
b1010 "
b1111 #
b1010 %
b1111 &
#455000000
b1011 "
b0000 #
b1011 %
b0000 &
#460000000
b1100 "
b0001 #
b1100 %
b0001 &
#465000000
b1101 "
b0010 #
b1101 %
b0010 &
#470000000
b1110 "
b0011 #
b1110 %
b0011 &
#475000000
b1111 "
b0100 #
b1111 %
b0100 &
#480000000
b0110 !
b0000 "
b0110 #
b0110 $
b0000 %
b0110 &
#485000000
b0001 "
b0111 #
b0001 %
b0111 &
#490000000
b0010 "
b1000 #
b0010 %
b1000 &
#495000000
b0011 "
b1001 #
b0011 %
b1001 &
#500000000
b0100 "
b1010 #
b0100 %
b1010 &
#505000000
b0101 "
b1011 #
b0101 %
b1011 &
#510000000
b0110 "
b1100 #
b0110 %
b1100 &
#515000000
b0111 "
b1101 #
b0111 %
b1101 &
#520000000
b1000 "
b1110 #
b1000 %
b1110 &
#525000000
b1001 "
b1111 #
b1001 %
b1111 &
#530000000
b1010 "
b0000 #
b1010 %
b0000 &
#535000000
b1011 "
b0001 #
b1011 %
b0001 &
#540000000
b1100 "
b0010 #
b1100 %
b0010 &
#545000000
b1101 "
b0011 #
b1101 %
b0011 &
#550000000
b1110 "
b0100 #
b1110 %
b0100 &
#555000000
b1111 "
b0101 #
b1111 %
b0101 &
#560000000
b0111 !
b0000 "
b0111 #
b0111 $
b0000 %
b0111 &
#565000000
b0001 "
b1000 #
b0001 %
b1000 &
#570000000
b0010 "
b1001 #
b0010 %
b1001 &
#575000000
b0011 "
b1010 #
b0011 %
b1010 &
#580000000
b0100 "
b1011 #
b0100 %
b1011 &
#585000000
b0101 "
b1100 #
b0101 %
b1100 &
#590000000
b0110 "
b1101 #
b0110 %
b1101 &
#595000000
b0111 "
b1110 #
b0111 %
b1110 &
#600000000
b1000 "
b1111 #
b1000 %
b1111 &
#605000000
b1001 "
b0000 #
b1001 %
b0000 &
#610000000
b1010 "
b0001 #
b1010 %
b0001 &
#615000000
b1011 "
b0010 #
b1011 %
b0010 &
#620000000
b1100 "
b0011 #
b1100 %
b0011 &
#625000000
b1101 "
b0100 #
b1101 %
b0100 &
#630000000
b1110 "
b0101 #
b1110 %
b0101 &
#635000000
b1111 "
b0110 #
b1111 %
b0110 &
#640000000
b1000 !
b0000 "
b1000 #
b1000 $
b0000 %
b1000 &
#645000000
b0001 "
b1001 #
b0001 %
b1001 &
#650000000
b0010 "
b1010 #
b0010 %
b1010 &
#655000000
b0011 "
b1011 #
b0011 %
b1011 &
#660000000
b0100 "
b1100 #
b0100 %
b1100 &
#665000000
b0101 "
b1101 #
b0101 %
b1101 &
#670000000
b0110 "
b1110 #
b0110 %
b1110 &
#675000000
b0111 "
b1111 #
b0111 %
b1111 &
#680000000
b1000 "
b0000 #
b1000 %
b0000 &
#685000000
b1001 "
b0001 #
b1001 %
b0001 &
#690000000
b1010 "
b0010 #
b1010 %
b0010 &
#695000000
b1011 "
b0011 #
b1011 %
b0011 &
#700000000
b1100 "
b0100 #
b1100 %
b0100 &
#705000000
b1101 "
b0101 #
b1101 %
b0101 &
#710000000
b1110 "
b0110 #
b1110 %
b0110 &
#715000000
b1111 "
b0111 #
b1111 %
b0111 &
#720000000
b1001 !
b0000 "
b1001 #
b1001 $
b0000 %
b1001 &
#725000000
b0001 "
b1010 #
b0001 %
b1010 &
#730000000
b0010 "
b1011 #
b0010 %
b1011 &
#735000000
b0011 "
b1100 #
b0011 %
b1100 &
#740000000
b0100 "
b1101 #
b0100 %
b1101 &
#745000000
b0101 "
b1110 #
b0101 %
b1110 &
#750000000
b0110 "
b1111 #
b0110 %
b1111 &
#755000000
b0111 "
b0000 #
b0111 %
b0000 &
#760000000
b1000 "
b0001 #
b1000 %
b0001 &
#765000000
b1001 "
b0010 #
b1001 %
b0010 &
#770000000
b1010 "
b0011 #
b1010 %
b0011 &
#775000000
b1011 "
b0100 #
b1011 %
b0100 &
#780000000
b1100 "
b0101 #
b1100 %
b0101 &
#785000000
b1101 "
b0110 #
b1101 %
b0110 &
#790000000
b1110 "
b0111 #
b1110 %
b0111 &
#795000000
b1111 "
b1000 #
b1111 %
b1000 &
#800000000
b1010 !
b0000 "
b1010 #
b1010 $
b0000 %
b1010 &
#805000000
b0001 "
b1011 #
b0001 %
b1011 &
#810000000
b0010 "
b1100 #
b0010 %
b1100 &
#815000000
b0011 "
b1101 #
b0011 %
b1101 &
#820000000
b0100 "
b1110 #
b0100 %
b1110 &
#825000000
b0101 "
b1111 #
b0101 %
b1111 &
#830000000
b0110 "
b0000 #
b0110 %
b0000 &
#835000000
b0111 "
b0001 #
b0111 %
b0001 &
#840000000
b1000 "
b0010 #
b1000 %
b0010 &
#845000000
b1001 "
b0011 #
b1001 %
b0011 &
#850000000
b1010 "
b0100 #
b1010 %
b0100 &
#855000000
b1011 "
b0101 #
b1011 %
b0101 &
#860000000
b1100 "
b0110 #
b1100 %
b0110 &
#865000000
b1101 "
b0111 #
b1101 %
b0111 &
#870000000
b1110 "
b1000 #
b1110 %
b1000 &
#875000000
b1111 "
b1001 #
b1111 %
b1001 &
#880000000
b1011 !
b0000 "
b1011 #
b1011 $
b0000 %
b1011 &
#885000000
b0001 "
b1100 #
b0001 %
b1100 &
#890000000
b0010 "
b1101 #
b0010 %
b1101 &
#895000000
b0011 "
b1110 #
b0011 %
b1110 &
#900000000
b0100 "
b1111 #
b0100 %
b1111 &
#905000000
b0101 "
b0000 #
b0101 %
b0000 &
#910000000
b0110 "
b0001 #
b0110 %
b0001 &
#915000000
b0111 "
b0010 #
b0111 %
b0010 &
#920000000
b1000 "
b0011 #
b1000 %
b0011 &
#925000000
b1001 "
b0100 #
b1001 %
b0100 &
#930000000
b1010 "
b0101 #
b1010 %
b0101 &
#935000000
b1011 "
b0110 #
b1011 %
b0110 &
#940000000
b1100 "
b0111 #
b1100 %
b0111 &
#945000000
b1101 "
b1000 #
b1101 %
b1000 &
#950000000
b1110 "
b1001 #
b1110 %
b1001 &
#955000000
b1111 "
b1010 #
b1111 %
b1010 &
#960000000
b1100 !
b0000 "
b1100 #
b1100 $
b0000 %
b1100 &
#965000000
b0001 "
b1101 #
b0001 %
b1101 &
#970000000
b0010 "
b1110 #
b0010 %
b1110 &
#975000000
b0011 "
b1111 #
b0011 %
b1111 &
#980000000
b0100 "
b0000 #
b0100 %
b0000 &
#985000000
b0101 "
b0001 #
b0101 %
b0001 &
#990000000
b0110 "
b0010 #
b0110 %
b0010 &
#995000000
b0111 "
b0011 #
b0111 %
b0011 &
#1000000000
b1000 "
b0100 #
b1000 %
b0100 &
#1005000000
b1001 "
b0101 #
b1001 %
b0101 &
#1010000000
b1010 "
b0110 #
b1010 %
b0110 &
#1015000000
b1011 "
b0111 #
b1011 %
b0111 &
#1020000000
b1100 "
b1000 #
b1100 %
b1000 &
#1025000000
b1101 "
b1001 #
b1101 %
b1001 &
#1030000000
b1110 "
b1010 #
b1110 %
b1010 &
#1035000000
b1111 "
b1011 #
b1111 %
b1011 &
#1040000000
b1101 !
b0000 "
b1101 #
b1101 $
b0000 %
b1101 &
#1045000000
b0001 "
b1110 #
b0001 %
b1110 &
#1050000000
b0010 "
b1111 #
b0010 %
b1111 &
#1055000000
b0011 "
b0000 #
b0011 %
b0000 &
#1060000000
b0100 "
b0001 #
b0100 %
b0001 &
#1065000000
b0101 "
b0010 #
b0101 %
b0010 &
#1070000000
b0110 "
b0011 #
b0110 %
b0011 &
#1075000000
b0111 "
b0100 #
b0111 %
b0100 &
#1080000000
b1000 "
b0101 #
b1000 %
b0101 &
#1085000000
b1001 "
b0110 #
b1001 %
b0110 &
#1090000000
b1010 "
b0111 #
b1010 %
b0111 &
#1095000000
b1011 "
b1000 #
b1011 %
b1000 &
#1100000000
b1100 "
b1001 #
b1100 %
b1001 &
#1105000000
b1101 "
b1010 #
b1101 %
b1010 &
#1110000000
b1110 "
b1011 #
b1110 %
b1011 &
#1115000000
b1111 "
b1100 #
b1111 %
b1100 &
#1120000000
b1110 !
b0000 "
b1110 #
b1110 $
b0000 %
b1110 &
#1125000000
b0001 "
b1111 #
b0001 %
b1111 &
#1130000000
b0010 "
b0000 #
b0010 %
b0000 &
#1135000000
b0011 "
b0001 #
b0011 %
b0001 &
#1140000000
b0100 "
b0010 #
b0100 %
b0010 &
#1145000000
b0101 "
b0011 #
b0101 %
b0011 &
#1150000000
b0110 "
b0100 #
b0110 %
b0100 &
#1155000000
b0111 "
b0101 #
b0111 %
b0101 &
#1160000000
b1000 "
b0110 #
b1000 %
b0110 &
#1165000000
b1001 "
b0111 #
b1001 %
b0111 &
#1170000000
b1010 "
b1000 #
b1010 %
b1000 &
#1175000000
b1011 "
b1001 #
b1011 %
b1001 &
#1180000000
b1100 "
b1010 #
b1100 %
b1010 &
#1185000000
b1101 "
b1011 #
b1101 %
b1011 &
#1190000000
b1110 "
b1100 #
b1110 %
b1100 &
#1195000000
b1111 "
b1101 #
b1111 %
b1101 &
#1200000000
b1111 !
b0000 "
b1111 #
b1111 $
b0000 %
b1111 &
#1205000000
b0001 "
b0000 #
b0001 %
b0000 &
#1210000000
b0010 "
b0001 #
b0010 %
b0001 &
#1215000000
b0011 "
b0010 #
b0011 %
b0010 &
#1220000000
b0100 "
b0011 #
b0100 %
b0011 &
#1225000000
b0101 "
b0100 #
b0101 %
b0100 &
#1230000000
b0110 "
b0101 #
b0110 %
b0101 &
#1235000000
b0111 "
b0110 #
b0111 %
b0110 &
#1240000000
b1000 "
b0111 #
b1000 %
b0111 &
#1245000000
b1001 "
b1000 #
b1001 %
b1000 &
#1250000000
b1010 "
b1001 #
b1010 %
b1001 &
#1255000000
b1011 "
b1010 #
b1011 %
b1010 &
#1260000000
b1100 "
b1011 #
b1100 %
b1011 &
#1265000000
b1101 "
b1100 #
b1101 %
b1100 &
#1270000000
b1110 "
b1101 #
b1110 %
b1101 &
#1275000000
b1111 "
b1110 #
b1111 %
b1110 &
